06a0a019f4511e63b1dfe99e28650c05802984eca3f5fa164763a99f822e6da3  tor-browser-linux32-6.5.1_ar.tar.xz
cf801697a987aa4b97f98a52bd0d8a7abf9f8367f6af4908336ef7cda6091e4a  tor-browser-linux32-6.5.1_de.tar.xz
99addabdc645a5b8c57fb98e4a14f5fd5ce54ff7f07085791af6c2154086cffd  tor-browser-linux32-6.5.1_en-US.tar.xz
e5cd51ffbf7acc1a262866b27e84a0fbf586a0119367bea6ecadd6e12b1f3229  tor-browser-linux32-6.5.1_es-ES.tar.xz
f266429db0b0bf78a792d8242cd5c9719a16fdc54c8ebd68820ee5c2b5e600bb  tor-browser-linux32-6.5.1_fa.tar.xz
6f76c3601d786ff10f5faf7aff9130d7d532125e1f9b01a76e7302d3ed385ef5  tor-browser-linux32-6.5.1_fr.tar.xz
eafa06332bacaf5e82a8e77ed7780a61983bb94d7d4f942151b3d6d33fb0034c  tor-browser-linux32-6.5.1_it.tar.xz
0d31ed72ad2ed3691c21e5ffdb0f1c56cf678f4fd78b596440eb108d9ee7f1de  tor-browser-linux32-6.5.1_ja.tar.xz
494599bb91f9b5e4351b6cffa93f6d30cbd23917f7926126c12883aadef0f384  tor-browser-linux32-6.5.1_ko.tar.xz
d99b30d796a01966268942ece05bb85fdcc485e111c63b0429ae546c74419776  tor-browser-linux32-6.5.1_nl.tar.xz
e116523b4f65904eb51908ff6ee9939e7bb1ac75f3f308d4e9fc25102de94f51  tor-browser-linux32-6.5.1_pl.tar.xz
d630885bf4e86be998be4007d3961ff0e1dfd34c7e9e3077b60f0127e29bb2d5  tor-browser-linux32-6.5.1_pt-BR.tar.xz
9bbf0360cab2f016b9ea68f62471bc6acbffd4c2668dab269213ce805dd1a6d3  tor-browser-linux32-6.5.1_ru.tar.xz
ee5037266e70563594963417467d60eb28b1f70a784f38259e39195a0e82401c  tor-browser-linux32-6.5.1_tr.tar.xz
b12aaef2c1e5ed7d6276e4540725484b290cc6b8ef909c89589122319d9f4cba  tor-browser-linux32-6.5.1_vi.tar.xz
44f772fb784eda7507a3204076d7f8a63ab06e86d42adab1b7049224afcbb03e  tor-browser-linux32-6.5.1_zh-CN.tar.xz
